{
  "params-file": "params.json",
  "hosts-file": "hosts.json",
  "locations-file": "locations.json",
  "datalog-file": "datalog.json",
  "current-cycle": 0,
  "total-cycles": 100,
  
  "checkpoint": {
	"type": "cycles",
	"interval": 200
  },
  
  "seed": {
	"type": "uint",
	"value": 45459334
  }
}